0.20166873931884766
0.5066726207733154
0.873215913772583
1.0768543879191081
1.7190978527069092
1.7002794742584229
2.159047285715739
2.448856989542643
2.0265324910481772
0.2783970832824707
0.45094839731852215
0.8137086232503256
1.10616135597229
1.1196484565734863
1.464834451675415
1.6658717791239421
2.095078786214193
2.382369120915731